%YAML 1.1
%TAG !u! tag:unity3d.com,2011:
--- !u!1 &1344652957509508
GameObject:
  m_ObjectHideFlags: 0
  m_CorrespondingSourceObject: {fileID: 0}
  m_PrefabInstance: {fileID: 0}
  m_PrefabAsset: {fileID: 0}
  serializedVersion: 6
  m_Component:
  - component: {fileID: 4632466576055258}
  - component: {fileID: 33693170375166290}
  m_Layer: 0
  m_Name: Wall-Horizontal
  m_TagString: Untagged
  m_Icon: {fileID: 0}
  m_NavMeshLayer: 0
  m_StaticEditorFlags: 0
  m_IsActive: 1
--- !u!4 &4632466576055258
Transform:
  m_ObjectHideFlags: 0
  m_CorrespondingSourceObject: {fileID: 0}
  m_PrefabInstance: {fileID: 0}
  m_PrefabAsset: {fileID: 0}
  m_GameObject: {fileID: 1344652957509508}
  m_LocalRotation: {x: 0, y: 0, z: 0, w: 1}
  m_LocalPosition: {x: 0, y: 0, z: 0}
  m_LocalScale: {x: 1, y: 1.0000005, z: 1.0000005}
  m_Children:
  - {fileID: 1789027460322527626}
  m_Father: {fileID: 0}
  m_RootOrder: 0
  m_LocalEulerAnglesHint: {x: 0, y: 0, z: 0}
--- !u!33 &33693170375166290
MeshFilter:
  m_ObjectHideFlags: 0
  m_CorrespondingSourceObject: {fileID: 0}
  m_PrefabInstance: {fileID: 0}
  m_PrefabAsset: {fileID: 0}
  m_GameObject: {fileID: 1344652957509508}
  m_Mesh: {fileID: 10202, guid: 0000000000000000e000000000000000, type: 0}
--- !u!1001 &6749015889555235472
PrefabInstance:
  m_ObjectHideFlags: 0
  serializedVersion: 2
  m_Modification:
    m_TransformParent: {fileID: 4632466576055258}
    m_Modifications:
    - target: {fileID: -4216859302048453862, guid: c3a20bee69e50474fbe3434d2517e9ce,
        type: 3}
      propertyPath: m_LocalPosition.x
      value: 0.209
      objectReference: {fileID: 0}
    - target: {fileID: -4216859302048453862, guid: c3a20bee69e50474fbe3434d2517e9ce,
        type: 3}
      propertyPath: m_LocalPosition.y
      value: -0.494
      objectReference: {fileID: 0}
    - target: {fileID: -4216859302048453862, guid: c3a20bee69e50474fbe3434d2517e9ce,
        type: 3}
      propertyPath: m_LocalPosition.z
      value: 0
      objectReference: {fileID: 0}
    - target: {fileID: -4216859302048453862, guid: c3a20bee69e50474fbe3434d2517e9ce,
        type: 3}
      propertyPath: m_LocalRotation.x
      value: -0.7071068
      objectReference: {fileID: 0}
    - target: {fileID: -4216859302048453862, guid: c3a20bee69e50474fbe3434d2517e9ce,
        type: 3}
      propertyPath: m_LocalRotation.y
      value: 0
      objectReference: {fileID: 0}
    - target: {fileID: -4216859302048453862, guid: c3a20bee69e50474fbe3434d2517e9ce,
        type: 3}
      propertyPath: m_LocalRotation.z
      value: 0
      objectReference: {fileID: 0}
    - target: {fileID: -4216859302048453862, guid: c3a20bee69e50474fbe3434d2517e9ce,
        type: 3}
      propertyPath: m_LocalRotation.w
      value: 0.7071068
      objectReference: {fileID: 0}
    - target: {fileID: -4216859302048453862, guid: c3a20bee69e50474fbe3434d2517e9ce,
        type: 3}
      propertyPath: m_RootOrder
      value: 0
      objectReference: {fileID: 0}
    - target: {fileID: -4216859302048453862, guid: c3a20bee69e50474fbe3434d2517e9ce,
        type: 3}
      propertyPath: m_LocalEulerAnglesHint.x
      value: -90
      objectReference: {fileID: 0}
    - target: {fileID: -4216859302048453862, guid: c3a20bee69e50474fbe3434d2517e9ce,
        type: 3}
      propertyPath: m_LocalEulerAnglesHint.y
      value: 0
      objectReference: {fileID: 0}
    - target: {fileID: -4216859302048453862, guid: c3a20bee69e50474fbe3434d2517e9ce,
        type: 3}
      propertyPath: m_LocalEulerAnglesHint.z
      value: 0
      objectReference: {fileID: 0}
    - target: {fileID: -4216859302048453862, guid: c3a20bee69e50474fbe3434d2517e9ce,
        type: 3}
      propertyPath: m_LocalScale.x
      value: 29
      objectReference: {fileID: 0}
    - target: {fileID: -4216859302048453862, guid: c3a20bee69e50474fbe3434d2517e9ce,
        type: 3}
      propertyPath: m_LocalScale.y
      value: 50
      objectReference: {fileID: 0}
    - target: {fileID: -4216859302048453862, guid: c3a20bee69e50474fbe3434d2517e9ce,
        type: 3}
      propertyPath: m_LocalScale.z
      value: 50
      objectReference: {fileID: 0}
    - target: {fileID: -927199367670048503, guid: c3a20bee69e50474fbe3434d2517e9ce,
        type: 3}
      propertyPath: m_Name
      value: wall
      objectReference: {fileID: 0}
    - target: {fileID: -1504981713932161579, guid: c3a20bee69e50474fbe3434d2517e9ce,
        type: 3}
      propertyPath: m_Materials.Array.data[0]
      value: 
      objectReference: {fileID: 2100000, guid: 1043fc3ac49cabe42a66e0a604513226, type: 2}
    - target: {fileID: -1504981713932161579, guid: c3a20bee69e50474fbe3434d2517e9ce,
        type: 3}
      propertyPath: m_CastShadows
      value: 0
      objectReference: {fileID: 0}
    m_RemovedComponents: []
  m_SourcePrefab: {fileID: 100100000, guid: c3a20bee69e50474fbe3434d2517e9ce, type: 3}
--- !u!4 &1789027460322527626 stripped
Transform:
  m_CorrespondingSourceObject: {fileID: -4216859302048453862, guid: c3a20bee69e50474fbe3434d2517e9ce,
    type: 3}
  m_PrefabInstance: {fileID: 6749015889555235472}
  m_PrefabAsset: {fileID: 0}
